…
ceac_des(seq(from=10000,to=500000,by=10000),res)
#> # A tibble: 100 × 3
#> # Groups:   wtp [50]
#>      wtp comparator prob_best
#>    <dbl> <chr>          <dbl>
#>  1 10000 int                0
#>  2 10000 noint              1
#>  3 20000 int                0
#>  4 20000 noint              1
#>  5 30000 int                0
#>  6 30000 noint              1
#>  7 40000 int                0
#>  8 40000 noint              1
#>  9 50000 int                0
#> 10 50000 noint              1
#> # ℹ 90 more rows
```
