…
evpi_des(seq(from=10000,to=500000,by=10000),res)
#> # A tibble: 100 × 2
#>       wtp  evpi
#>     <dbl> <dbl>
#>  1  10000     0
#>  2  20000     0
#>  3  30000     0
#>  4  40000     0
#>  5  50000     0
#>  6  60000     0
#>  7  70000     0
#>  8  80000     0
#>  9  90000     0
#> 10 100000     0
#> # ℹ 90 more rows
```
